Claim code;Total claim amount ($) from;Total claim amount ($) to;Option 1, TCP = ($);Option 1, K1P ($)
0;No claim amount;No claim amount;0.00;0.00
1;0.00;19,369.00;19,369.00;1,936.90
2;19,369.01;22,203.00;20,786.00;2,078.60
3;22,203.01;25,037.00;23,620.00;2,362.00
4;25,037.01;27,871.00;26,454.00;2,645.40
5;27,871.01;30,705.00;29,288.00;2,928.80
6;30,705.01;33,539.00;32,122.00;3,212.20
7;33,539.01;36,373.00;34,956.00;3,495.60
8;36,373.01;39,207.00;37,790.00;3,779.00
9;39,207.01;42,041.00;40,624.00;4,062.40
10;42,041.01;44,875.00;43,458.00;4,345.80
