Claim code,Total claim amount ($) from,Total claim amount ($) to,"Option 1, TCP = ($)","Option 1, K1P ($)"
0,No claim amount,No claim amount,0,0
1,0,"11,981.00","11,981.00",606.24
2,"11,981.01","14,677.00","13,329.00",674.45
3,"14,677.01","17,373.00","16,025.00",810.87
4,"17,373.01","20,069.00","18,721.00",947.28
5,"20,069.01","22,765.00","21,417.00","1,083.70"
6,"22,765.01","25,461.00","24,113.00","1,220.12"
7,"25,461.01","28,157.00","26,809.00","1,356.54"
8,"28,157.01","30,853.00","29,505.00","1,492.95"
9,"30,853.01","33,549.00","32,201.00","1,629.37"
10,"33,549.01","36,245.00","34,897.00","1,765.79"
