Claim code,Total claim amount ($) from,Total claim amount ($) to,"Option 1, TCP = ($)","Option 1, K1P ($)"
0,No claim amount,No claim amount,0,0
1,0,"12,458.00","12,458.00","1,171.05"
2,"12,458.01","15,009.00","13,733.50","1,290.95"
3,"15,009.01","17,560.00","16,284.50","1,530.74"
4,"17,560.01","20,111.00","18,835.50","1,770.54"
5,"20,111.01","22,662.00","21,386.50","2,010.33"
6,"22,662.01","25,213.00","23,937.50","2,250.13"
7,"25,213.01","27,764.00","26,488.50","2,489.92"
8,"27,764.01","30,315.00","29,039.50","2,729.71"
9,"30,315.01","32,866.00","31,590.50","2,969.51"
10,"32,866.01","35,417.00","34,141.50","3,209.30"
