Claim code,Total claim amount ($) from,Total claim amount ($) to,"Option 1, TCP = ($)","Option 1, K1P ($)"
0,No claim amount,No claim amount,0,0
1,0,"10,145.00","10,145.00","1,095.66"
2,"10,145.01","11,838.00","10,991.50","1,187.08"
3,"11,838.01","13,531.00","12,684.50","1,369.93"
4,"13,531.01","15,224.00","14,377.50","1,552.77"
5,"15,224.01","16,917.00","16,070.50","1,735.61"
6,"16,917.01","18,610.00","17,763.50","1,918.46"
7,"18,610.01","20,303.00","19,456.50","2,101.30"
8,"20,303.01","21,996.00","21,149.50","2,284.15"
9,"21,996.01","23,689.00","22,842.50","2,466.99"
10,"23,689.01","25,382.00","24,535.50","2,649.83"
