Claim code,Total claim amount ($) from,Total claim amount ($) to,"Option 1, TCP = ($)","Option 1, K1P ($)"
0,No claim amount,No claim amount,0,0
1,0,"9,803.00","9,803.00",852.86
2,"9,803.01","11,920.00","10,861.50",944.95
3,"11,920.01","14,037.00","12,978.50","1,129.13"
4,"14,037.01","16,154.00","15,095.50","1,313.31"
5,"16,154.01","18,271.00","17,212.50","1,497.49"
6,"18,271.01","20,388.00","19,329.50","1,681.67"
7,"20,388.01","22,505.00","21,446.50","1,865.85"
8,"22,505.01","24,622.00","23,563.50","2,050.02"
9,"24,622.01","26,739.00","25,680.50","2,234.20"
10,"26,739.01","28,856.00","27,797.50","2,418.38"
