Claim code,Total claim amount ($) from,Total claim amount ($) to,"Option 1, TCP = ($)","Option 1, K1P ($)"
0,No claim amount,No claim amount,0,0
1,0,"11,250.00","11,250.00","1,102.50"
2,"11,250.01","12,850.00","12,050.00","1,180.90"
3,"12,850.01","14,450.00","13,650.00","1,337.70"
4,"14,450.01","16,050.00","15,250.00","1,494.50"
5,"16,050.01","17,650.00","16,850.00","1,651.30"
6,"17,650.01","19,250.00","18,450.00","1,808.10"
7,"19,250.01","20,850.00","20,050.00","1,964.90"
8,"20,850.01","22,450.00","21,650.00","2,121.70"
9,"22,450.01","24,050.00","23,250.00","2,278.50"
10,"24,050.01","25,650.00","24,850.00","2,435.30"
