Table 8.2 Other rates and amounts for 2022,,,,,,,,,,
,Basic amount,Index rate,LCP rate,LCP amount,CEA,S2,T4 to V1,V1 rate,Abatement,Surtax
Federal,BPAF,0.024,0.15,750,"1,287",,,,,
AB,"19,369",,,,,,,,,
BC,"11,302",0.021,,,,491,,,,
MB,"10,145",0.021,0.15,"1,800",,,,,,
NB,"12,623",0.024,0.2,"2,000",,,,,,
NL,"9,803  ",0.028,,,,,,,,
NS,BPANS,,0.2,"2,000",,,,,,
NT,"15,609",0.024,,,,,,,,
NU,"16,862",0.024,,,,,,,,
ON,"11,141",0.024,,,,257,0,0,,
,,,,,,,"4,991",0.2,,
,,,,,,,"6,387",0.36,,
PE,"11,250",,,,,,0,0,,
,,,,,,,"12,500",0.1,,
QC,,,,,,,,,0.165,
SK,"16,615",0.024,0.175,875,,,,,,
YT,BPAYT,0.024,,,"1,287",,,,,
Outside Canada,,,,,,,,,,0.48
" 9,803",,,,,,,,,,
 Fixed,,,,,,,,,,
