Claim code,Total claim amount ($) from,Total claim amount ($) to,"Option 1, TCP = ($)","Option 1, K1P ($)"
0,No claim amount,No claim amount,0,0
1,0,"15,000.00","15,000.00",960
2,"15,000.01","17,583.00","16,291.50","1,042.66"
3,"17,583.01","20,166.00","18,874.50","1,207.97"
4,"20,166.01","22,749.00","21,457.50","1,373.28"
5,"22,749.01","25,332.00","24,040.50","1,538.59"
6,"25,332.01","27,915.00","26,623.50","1,703.90"
7,"27,915.01","30,498.00","29,206.50","1,869.22"
8,"30,498.01","33,081.00","31,789.50","2,034.53"
9,"33,081.01","35,664.00","34,372.50","2,199.84"
10,"35,664.01","38,247.00","36,955.50","2,365.15"
