Claim code,Total claim amount ($) from,Total claim amount ($) to,"Option 1, TCP ($)","Option 1, K1P ($)"
0,No claim amount,No claim amount,0,0
1,0,"10,818.00","10,818.00",941.17
2,"10,818.01","13,154.00","11,986.00","1,042.78"
3,"13,154.01","15,490.00","14,322.00","1,246.01"
4,"15,490.01","17,826.00","16,658.00","1,449.25"
5,"17,826.01","20,162.00","18,994.00","1,652.48"
6,"20,162.01","22,498.00","21,330.00","1,855.71"
7,"22,498.01","24,834.00","23,666.00","2,058.94"
8,"24,834.01","27,170.00","26,002.00","2,262.17"
9,"27,170.01","29,506.00","28,338.00","2,465.41"
10,"29,506.01","31,842.00","30,674.00","2,668.64"
