EI,Maximum Annual Insurable Earnings,Employee Contribution Rate,Employer Contribution Rate,Maximum Annual Employee Premium,Maximum Annual Employer Premium
Canada except QC,"63,200.00",0.0166,0.02324,"1,049.12","1,468.77"
QC,"63,200.00",0.0132,0.01848,834.24,"1,167.94"
