Claim code,Total claim amount ($) from,Total claim amount ($) to,"Option 1, TCP = ($)","Option 1, K1P ($)"
0,No claim amount,No claim amount,0,0
1,0,"11,481.00","11,481.00","1,009.18"
2,"11,481.01","13,081.00","12,281.00","1,079.50"
3,"13,081.01","14,681.00","13,881.00","1,220.14"
4,"14,681.01","16,281.00","15,481.00","1,360.78"
5,"16,281.01","17,881.00","17,081.00","1,501.42"
6,"17,881.01","19,481.00","18,681.00","1,642.06"
7,"19,481.01","21,081.00","20,281.00","1,782.70"
8,"21,081.01","22,681.00","21,881.00","1,923.34"
9,"22,681.01","24,281.00","23,481.00","2,063.98"
10,"24,281.01","25,881.00","25,081.00","2,204.62"
