,,1st,2nd,3rd,4th,5th,6th,7th,8th
Federal,A,0,"50,197","100,392","155,625","221,708",,,
,R,0.15,0.205,0.26,0.29,0.33,,,
,K,0,"2,761","8,282","12,951","21,819",,,
AB,A,0,"131,220","157,464","209,952","314,928",,,
,V,0.1,0.12,0.13,0.14,0.15,,,
,KP,0,"2,624","4,199","6,299","9,448",,,
BC,A,0,"43,070","86,141","98,901","120,094","162,832","227,091",
,V,0.0506,0.077,0.105,0.1229,0.147,0.168,0.205,
,KP,0,"1,137","3,549","5,319","8,214","11,633","20,035",
MB,A,0,"34,431","74,416",,,,,
,V,0.108,0.1275,0.174,,,,,
,KP,0,671,"4,132",,,,,
NB,A,0,"44,887","89,775","145,955","166,280",,,
,V,0.094,0.1482,0.1652,0.1784,0.203,,,
,KP,0,"2,433","3,959","5,886","9,976",,,
NL,A,0,"39,147","78,294","139,780","195,693","250,000","500,000","1,000,000"
,V,0.087,0.145,0.158,0.178,0.198,0.208,0.213,0.218
,KP,0,"2,271","3,288","6,084","9,998","12,498","14,998","19,998"
NS,A,0,"29,590","59,180","93,000","150,000",,,
,V,0.0879,0.1495,0.1667,0.175,0.21,,,
,KP,0,"1,823","2,841","3,613","8,863",,,
NT,A,0,"45,462","90,927","147,826",,,,
,V,0.059,0.086,0.122,0.1405,,,,
,KP,0,"1,227","4,501","7,236",,,,
NU,A,0,"47,862","95,724","155,625",,,,
,V,0.04,0.07,0.09,0.115,,,,
,KP,0,"1,436","3,350","7,241",,,,
ON,A,0,"46,226","92,454","150,000","220,000",,,
,V,0.0505,0.0915,0.1116,0.1216,0.1316,,,
,KP,0,"1,895","3,754","5,254","7,454",,,
PE,A,0,"31,984","63,969",,,,,
,V,0.098,0.138,0.167,,,,,
,KP,0,"1,279","3,134",,,,,
SK,A,0,"46,773","133,638",,,,,
,V,0.105,0.125,0.145,,,,,
,KP,0,935,"3,608",,,,,
YT,A,0,"50,197","100,392","155,625","500,000",,,
,V,0.064,0.09,0.109,0.128,0.15,,,
,KP,0,"1,305","3,213","6,169","17,169",,,
